…
## 2.6 Realice una tabla de frecuencias con el tiempo de llamada.

``` r
frecuencias <- unido %>%
               filter(Call == 1) %>%
               group_by(duracion) %>%
               count(duracion,name = "Cantidad de llamadas")
```

``` r
frecuencias
```

    ## # A tibble: 48 x 2
    ## # Groups:   duracion [48]
    ##    duracion `Cantidad de llamadas`
    ##       <dbl>                  <int>
    ##  1    -1434                      1
    ##  2    -1433                      1
    ##  3    -1432                      3
    ##  4    -1431                      1
    ##  5    -1430                      1
    ##  6    -1429                      1
    ##  7    -1428                      1
    ##  8    -1425                      1
    ##  9    -1424                      1
    ## 10    -1423                      2
    ## # ... with 38 more rows
…
tiempo_uno$hora <- substr(tiempo_uno$dep_time,1,1)
tiempo_uno$minuto <- substr(tiempo_uno$dep_time,2,3)

tiempo_dos$hora <- substr(tiempo_dos$dep_time,1,2)
tiempo_dos$minuto <- substr(tiempo_dos$dep_time,3,4)

tiempo_total = bind_rows(tiempo_uno,tiempo_dos)
class(tiempo_total$hora) = "integer"

tiempo_total$dep_time_hora = make_datetime(year = tiempo_total$year, month = tiempo_total$month, day = tiempo_total$day, hour = tiempo_total$hora, min = tiempo_total$minuto)

tiempo_total
```

    ## # A tibble: 328,521 x 22
    ##     year month   day dep_time sched_dep_time dep_delay arr_time sched_arr_time
    ##    <int> <int> <int>    <int>          <int>     <dbl>    <int>          <int>
    ##  1  2013     1     1      517            515         2      830            819
    ##  2  2013     1     1      533            529         4      850            830
    ##  3  2013     1     1      542            540         2      923            850
    ##  4  2013     1     1      544            545        -1     1004           1022
    ##  5  2013     1     1      554            600        -6      812            837
    ##  6  2013     1     1      554            558        -4      740            728
    ##  7  2013     1     1      555            600        -5      913            854
    ##  8  2013     1     1      557            600        -3      709            723
    ##  9  2013     1     1      557            600        -3      838            846
    ## 10  2013     1     1      558            600        -2      753            745
    ## # ... with 328,511 more rows, and 14 more variables: arr_delay <dbl>,
    ## #   carrier <chr>, flight <int>, tailnum <chr>, origin <chr>, dest <chr>,
    ## #   air_time <dbl>, distance <dbl>, hour <dbl>, minute <dbl>, time_hour <dttm>,
    ## #   hora <int>, minuto <chr>, dep_time_hora <dttm>
…
tiempo_uno$hora <- substr(tiempo_uno$arr_time,1,1)
tiempo_uno$minuto <- substr(tiempo_uno$arr_time,2,3)

tiempo_dos$hora <- substr(tiempo_dos$arr_time,1,2)
tiempo_dos$minuto <- substr(tiempo_dos$arr_time,3,4)

tiempo_total = bind_rows(tiempo_uno,tiempo_dos)
class(tiempo_total$hora) = "integer"

tiempo_total$arr_time_hora = make_datetime(year = tiempo_total$year, month = tiempo_total$month, day = tiempo_total$day, hour = tiempo_total$hora, min = tiempo_total$minuto)

tiempo_total
```

    ## # A tibble: 328,063 x 23
    ##     year month   day dep_time sched_dep_time dep_delay arr_time sched_arr_time
    ##    <int> <int> <int>    <int>          <int>     <dbl>    <int>          <int>
    ##  1  2013     1     1      517            515         2      830            819
    ##  2  2013     1     1      533            529         4      850            830
    ##  3  2013     1     1      542            540         2      923            850
    ##  4  2013     1     1      554            600        -6      812            837
    ##  5  2013     1     1      554            558        -4      740            728
    ##  6  2013     1     1      555            600        -5      913            854
    ##  7  2013     1     1      557            600        -3      709            723
    ##  8  2013     1     1      557            600        -3      838            846
    ##  9  2013     1     1      558            600        -2      753            745
    ## 10  2013     1     1      558            600        -2      849            851
    ## # ... with 328,053 more rows, and 15 more variables: arr_delay <dbl>,
    ## #   carrier <chr>, flight <int>, tailnum <chr>, origin <chr>, dest <chr>,
    ## #   air_time <dbl>, distance <dbl>, hour <dbl>, minute <dbl>, time_hour <dttm>,
    ## #   hora <int>, minuto <chr>, dep_time_hora <dttm>, arr_time_hora <dttm>
…
tiempo_uno$hora <- substr(tiempo_uno$sched_dep_time,1,1)
tiempo_uno$minuto <- substr(tiempo_uno$sched_dep_time,2,3)

tiempo_dos$hora <- substr(tiempo_dos$sched_dep_time,1,2)
tiempo_dos$minuto <- substr(tiempo_dos$sched_dep_time,3,4)

tiempo_total = bind_rows(tiempo_uno,tiempo_dos)
class(tiempo_total$hora) = "integer"

tiempo_total$sched_dep_time_hora = make_datetime(year = tiempo_total$year, month = tiempo_total$month, day = tiempo_total$day, hour = tiempo_total$hora, min = tiempo_total$minuto)

tiempo_total
```

    ## # A tibble: 328,063 x 24
    ##     year month   day dep_time sched_dep_time dep_delay arr_time sched_arr_time
    ##    <int> <int> <int>    <int>          <int>     <dbl>    <int>          <int>
    ##  1  2013     1     1      517            515         2      830            819
    ##  2  2013     1     1      533            529         4      850            830
    ##  3  2013     1     1      542            540         2      923            850
    ##  4  2013     1     1      554            600        -6      812            837
    ##  5  2013     1     1      554            558        -4      740            728
    ##  6  2013     1     1      555            600        -5      913            854
    ##  7  2013     1     1      557            600        -3      709            723
    ##  8  2013     1     1      557            600        -3      838            846
    ##  9  2013     1     1      558            600        -2      753            745
    ## 10  2013     1     1      558            600        -2      849            851
    ## # ... with 328,053 more rows, and 16 more variables: arr_delay <dbl>,
    ## #   carrier <chr>, flight <int>, tailnum <chr>, origin <chr>, dest <chr>,
    ## #   air_time <dbl>, distance <dbl>, hour <dbl>, minute <dbl>, time_hour <dttm>,
    ## #   hora <int>, minuto <chr>, dep_time_hora <dttm>, arr_time_hora <dttm>,
    ## #   sched_dep_time_hora <dttm>
…
tiempo_uno$hora <- substr(tiempo_uno$sched_arr_time ,1,1)
tiempo_uno$minuto <- substr(tiempo_uno$sched_arr_time ,2,3)

tiempo_dos$hora <- substr(tiempo_dos$sched_arr_time ,1,2)
tiempo_dos$minuto <- substr(tiempo_dos$sched_arr_time ,3,4)

tiempo_total = bind_rows(tiempo_uno,tiempo_dos)
class(tiempo_total$hora) = "integer"

tiempo_total$sched_arr_time_hora = make_datetime(year = tiempo_total$year, month = tiempo_total$month, day = tiempo_total$day, hour = tiempo_total$hora, min = tiempo_total$minuto)

tiempo_total
```

    ## # A tibble: 328,063 x 25
    ##     year month   day dep_time sched_dep_time dep_delay arr_time sched_arr_time
    ##    <int> <int> <int>    <int>          <int>     <dbl>    <int>          <int>
    ##  1  2013     1     1      517            515         2      830            819
    ##  2  2013     1     1      533            529         4      850            830
    ##  3  2013     1     1      542            540         2      923            850
    ##  4  2013     1     1      554            600        -6      812            837
    ##  5  2013     1     1      554            558        -4      740            728
    ##  6  2013     1     1      555            600        -5      913            854
    ##  7  2013     1     1      557            600        -3      709            723
    ##  8  2013     1     1      557            600        -3      838            846
    ##  9  2013     1     1      558            600        -2      753            745
    ## 10  2013     1     1      558            600        -2      849            851
    ## # ... with 328,053 more rows, and 17 more variables: arr_delay <dbl>,
    ## #   carrier <chr>, flight <int>, tailnum <chr>, origin <chr>, dest <chr>,
    ## #   air_time <dbl>, distance <dbl>, hour <dbl>, minute <dbl>, time_hour <dttm>,
    ## #   hora <int>, minuto <chr>, dep_time_hora <dttm>, arr_time_hora <dttm>,
    ## #   sched_dep_time_hora <dttm>, sched_arr_time_hora <dttm>

## 4.2 Encuentre el delay total que existe en cada vuelo. El delay total se puede encontrar sumando el delay de la salida y el delay de la entrada.

``` r
tiempo_total$delay_total = difftime(tiempo_total$dep_time_hora,tiempo_total$sched_dep_time_hora) + difftime(tiempo_total$arr_time_hora, tiempo_total$sched_arr_time_hora)
```

``` r
tiempo_total %>% select(delay_total)
```

    ## # A tibble: 328,063 x 1
    ##    delay_total
    ##    <drtn>     
    ##  1   780 secs 
    ##  2  1440 secs 
    ##  3  2100 secs 
    ##  4 -1860 secs 
    ##  5   480 secs 
    ##  6   840 secs 
    ##  7 -1020 secs 
    ##  8  -660 secs 
    ##  9   360 secs 
    ## 10  -240 secs 
    ## # ... with 328,053 more rows
